 php artisan route:list
+-------------------------------+-----------+----------------------------------------------------+-------------------------------+---------------------------------------------------------------------+---------------------------------------------+
| Domain                        | Method    | URI                                                | Name                          | Action                                                              | Middleware                                  |
+-------------------------------+-----------+----------------------------------------------------+-------------------------------+---------------------------------------------------------------------+---------------------------------------------+
| admin.jerssonarrivasplata.com | POST      | /                                                  | store                         | App\Http\Controllers\Admin\HomeController@store                     | web                                         |
|                               |           |                                                    |                               |                                                                     | App\Http\Middleware\Authenticate            |
| admin.jerssonarrivasplata.com | GET|HEAD  | /                                                  | index                         | App\Http\Controllers\Admin\HomeController@index                     | web                                         |
|                               |           |                                                    |                               |                                                                     | App\Http\Middleware\Authenticate            |
| dev.jerssonarrivasplata.com   | GET|HEAD  | /                                                  |                               | App\Http\Controllers\Web\BlogController@index                       | web                                         |
| jerssonarrivasplata.com       | GET|HEAD  | /                                                  |                               | Closure                                                             | web                                         |
| dev.jerssonarrivasplata.com   | GET|HEAD  | angular                                            |                               | Closure                                                             | web                                         |
|                               | GET|HEAD  | api/user                                           |                               | Closure                                                             | api                                         |
|                               |           |                                                    |                               |                                                                     | App\Http\Middleware\Authenticate:sanctum    |
| jerssonarrivasplata.com       | GET|HEAD  | blog                                               |                               | Closure                                                             | web                                         |
| admin.jerssonarrivasplata.com | GET|HEAD  | blog-content                                       | blog-content.index            | App\Http\Controllers\Admin\BlogContentController@index              | web                                         |
|                               |           |                                                    |                               |                                                                     | App\Http\Middleware\Authenticate            |
| admin.jerssonarrivasplata.com | POST      | blog-content                                       | blog-content.store            | App\Http\Controllers\Admin\BlogContentController@store              | web                                         |
|                               |           |                                                    |                               |                                                                     | App\Http\Middleware\Authenticate            |
| admin.jerssonarrivasplata.com | POST      | blog-content-generate                              | blog-content-generate.store   | App\Http\Controllers\Admin\BlogContentGenerateController@store      | web                                         |
|                               |           |                                                    |                               |                                                                     | App\Http\Middleware\Authenticate            |
| admin.jerssonarrivasplata.com | GET|HEAD  | blog-content-generate                              | blog-content-generate.index   | App\Http\Controllers\Admin\BlogContentGenerateController@index      | web                                         |
|                               |           |                                                    |                               |                                                                     | App\Http\Middleware\Authenticate            |
| admin.jerssonarrivasplata.com | GET|HEAD  | blog-content-generate/create                       | blog-content-generate.create  | App\Http\Controllers\Admin\BlogContentGenerateController@create     | web                                         |
|                               |           |                                                    |                               |                                                                     | App\Http\Middleware\Authenticate            |
| admin.jerssonarrivasplata.com | GET|HEAD  | blog-content-generate/filter                       |                               | App\Http\Controllers\Admin\BlogContentGenerateController@filter     | web                                         |
|                               |           |                                                    |                               |                                                                     | App\Http\Middleware\Authenticate            |
| admin.jerssonarrivasplata.com | DELETE    | blog-content-generate/{blog_content_generate}      | blog-content-generate.destroy | App\Http\Controllers\Admin\BlogContentGenerateController@destroy    | web                                         |
|                               |           |                                                    |                               |                                                                     | App\Http\Middleware\Authenticate            |
| admin.jerssonarrivasplata.com | PUT|PATCH | blog-content-generate/{blog_content_generate}      | blog-content-generate.update  | App\Http\Controllers\Admin\BlogContentGenerateController@update     | web                                         |
|                               |           |                                                    |                               |                                                                     | App\Http\Middleware\Authenticate            |
| admin.jerssonarrivasplata.com | GET|HEAD  | blog-content-generate/{blog_content_generate}      | blog-content-generate.show    | App\Http\Controllers\Admin\BlogContentGenerateController@show       | web                                         |
|                               |           |                                                    |                               |                                                                     | App\Http\Middleware\Authenticate            |
| admin.jerssonarrivasplata.com | GET|HEAD  | blog-content-generate/{blog_content_generate}/edit | blog-content-generate.edit    | App\Http\Controllers\Admin\BlogContentGenerateController@edit       | web                                         |
|                               |           |                                                    |                               |                                                                     | App\Http\Middleware\Authenticate            |
| admin.jerssonarrivasplata.com | GET|HEAD  | blog-content-type                                  | blog-content-type.index       | App\Http\Controllers\Admin\BlogContentTypeController@index          | web                                         |
|                               |           |                                                    |                               |                                                                     | App\Http\Middleware\Authenticate            |
| admin.jerssonarrivasplata.com | POST      | blog-content-type                                  | blog-content-type.store       | App\Http\Controllers\Admin\BlogContentTypeController@store          | web                                         |
|                               |           |                                                    |                               |                                                                     | App\Http\Middleware\Authenticate            |
| admin.jerssonarrivasplata.com | GET|HEAD  | blog-content-type/create                           | blog-content-type.create      | App\Http\Controllers\Admin\BlogContentTypeController@create         | web                                         |
|                               |           |                                                    |                               |                                                                     | App\Http\Middleware\Authenticate            |
| admin.jerssonarrivasplata.com | GET|HEAD  | blog-content-type/{blog_content_type}              | blog-content-type.show        | App\Http\Controllers\Admin\BlogContentTypeController@show           | web                                         |
|                               |           |                                                    |                               |                                                                     | App\Http\Middleware\Authenticate            |
| admin.jerssonarrivasplata.com | PUT|PATCH | blog-content-type/{blog_content_type}              | blog-content-type.update      | App\Http\Controllers\Admin\BlogContentTypeController@update         | web                                         |
|                               |           |                                                    |                               |                                                                     | App\Http\Middleware\Authenticate            |
| admin.jerssonarrivasplata.com | DELETE    | blog-content-type/{blog_content_type}              | blog-content-type.destroy     | App\Http\Controllers\Admin\BlogContentTypeController@destroy        | web                                         |
|                               |           |                                                    |                               |                                                                     | App\Http\Middleware\Authenticate            |
| admin.jerssonarrivasplata.com | GET|HEAD  | blog-content-type/{blog_content_type}/edit         | blog-content-type.edit        | App\Http\Controllers\Admin\BlogContentTypeController@edit           | web                                         |
|                               |           |                                                    |                               |                                                                     | App\Http\Middleware\Authenticate            |
| admin.jerssonarrivasplata.com | GET|HEAD  | blog-content/create                                | blog-content.create           | App\Http\Controllers\Admin\BlogContentController@create             | web                                         |
|                               |           |                                                    |                               |                                                                     | App\Http\Middleware\Authenticate            |
| admin.jerssonarrivasplata.com | DELETE    | blog-content/{blog_content}                        | blog-content.destroy          | App\Http\Controllers\Admin\BlogContentController@destroy            | web                                         |
|                               |           |                                                    |                               |                                                                     | App\Http\Middleware\Authenticate            |
| admin.jerssonarrivasplata.com | PUT|PATCH | blog-content/{blog_content}                        | blog-content.update           | App\Http\Controllers\Admin\BlogContentController@update             | web                                         |
|                               |           |                                                    |                               |                                                                     | App\Http\Middleware\Authenticate            |
| admin.jerssonarrivasplata.com | GET|HEAD  | blog-content/{blog_content}                        | blog-content.show             | App\Http\Controllers\Admin\BlogContentController@show               | web                                         |
|                               |           |                                                    |                               |                                                                     | App\Http\Middleware\Authenticate            |
| admin.jerssonarrivasplata.com | GET|HEAD  | blog-content/{blog_content}/edit                   | blog-content.edit             | App\Http\Controllers\Admin\BlogContentController@edit               | web                                         |
|                               |           |                                                    |                               |                                                                     | App\Http\Middleware\Authenticate            |
| jerssonarrivasplata.com       | GET|HEAD  | contacto                                           |                               | Closure                                                             | web                                         |
| admin.jerssonarrivasplata.com | GET|HEAD  | create                                             | create                        | App\Http\Controllers\Admin\HomeController@create                    | web                                         |
|                               |           |                                                    |                               |                                                                     | App\Http\Middleware\Authenticate            |
| dev.jerssonarrivasplata.com   | GET|HEAD  | css3                                               |                               | Closure                                                             | web                                         |
| admin.jerssonarrivasplata.com | POST      | docs                                               | docs.store                    | App\Http\Controllers\Admin\DocController@store                      | web                                         |
|                               |           |                                                    |                               |                                                                     | App\Http\Middleware\Authenticate            |
|                               | GET|HEAD  | docs                                               | larecipe.index                | BinaryTorch\LaRecipe\Http\Controllers\DocumentationController@index | web                                         |
| admin.jerssonarrivasplata.com | GET|HEAD  | docs                                               | docs.index                    | App\Http\Controllers\Admin\DocController@index                      | web                                         |
|                               |           |                                                    |                               |                                                                     | App\Http\Middleware\Authenticate            |
| admin.jerssonarrivasplata.com | GET|HEAD  | docs/create                                        | docs.create                   | App\Http\Controllers\Admin\DocController@create                     | web                                         |
|                               |           |                                                    |                               |                                                                     | App\Http\Middleware\Authenticate            |
|                               | GET|HEAD  | docs/scripts/{script}                              | larecipe.scripts              | BinaryTorch\LaRecipe\Http\Controllers\ScriptController              | web                                         |
|                               | GET|HEAD  | docs/search-index/{version}                        | larecipe.search               | BinaryTorch\LaRecipe\Http\Controllers\SearchController              | web                                         |
|                               | GET|HEAD  | docs/styles/{style}                                | larecipe.styles               | BinaryTorch\LaRecipe\Http\Controllers\StyleController               | web                                         |
| admin.jerssonarrivasplata.com | GET|HEAD  | docs/{doc}                                         | docs.show                     | App\Http\Controllers\Admin\DocController@show                       | web                                         |
|                               |           |                                                    |                               |                                                                     | App\Http\Middleware\Authenticate            |
| admin.jerssonarrivasplata.com | PUT|PATCH | docs/{doc}                                         | docs.update                   | App\Http\Controllers\Admin\DocController@update                     | web                                         |
|                               |           |                                                    |                               |                                                                     | App\Http\Middleware\Authenticate            |
| admin.jerssonarrivasplata.com | DELETE    | docs/{doc}                                         | docs.destroy                  | App\Http\Controllers\Admin\DocController@destroy                    | web                                         |
|                               |           |                                                    |                               |                                                                     | App\Http\Middleware\Authenticate            |
| admin.jerssonarrivasplata.com | GET|HEAD  | docs/{doc}/edit                                    | docs.edit                     | App\Http\Controllers\Admin\DocController@edit                       | web                                         |
|                               |           |                                                    |                               |                                                                     | App\Http\Middleware\Authenticate            |
|                               | GET|HEAD  | docs/{version}/{page?}                             | larecipe.show                 | BinaryTorch\LaRecipe\Http\Controllers\DocumentationController@show  | web                                         |
| jerssonarrivasplata.com       | GET|HEAD  | donacion                                           |                               | Closure                                                             | web                                         |
| admin.jerssonarrivasplata.com | POST      | download                                           |                               | App\Http\Controllers\Admin\DownloadController@store                 | web                                         |
|                               |           |                                                    |                               |                                                                     | App\Http\Middleware\Authenticate            |
| admin.jerssonarrivasplata.com | GET|HEAD  | download                                           |                               | App\Http\Controllers\Admin\DownloadController@download              | web                                         |
|                               |           |                                                    |                               |                                                                     | App\Http\Middleware\Authenticate            |
| jerssonarrivasplata.com       | GET|HEAD  | educacion                                          |                               | Closure                                                             | web                                         |
| doc.jerssonarrivasplata.com   | GET|HEAD  | example                                            |                               | Closure                                                             | web                                         |
| admin.jerssonarrivasplata.com | POST      | file                                               | file.store                    | App\Http\Controllers\Admin\FileController@store                     | web                                         |
|                               |           |                                                    |                               |                                                                     | App\Http\Middleware\Authenticate            |
| admin.jerssonarrivasplata.com | GET|HEAD  | file                                               | file.index                    | App\Http\Controllers\Admin\FileController@index                     | web                                         |
|                               |           |                                                    |                               |                                                                     | App\Http\Middleware\Authenticate            |
| admin.jerssonarrivasplata.com | POST      | file/blog-content                                  |                               | App\Http\Controllers\Admin\FileController@storeBlogContent          | web                                         |
|                               |           |                                                    |                               |                                                                     | App\Http\Middleware\Authenticate            |
| admin.jerssonarrivasplata.com | GET|HEAD  | file/create                                        | file.create                   | App\Http\Controllers\Admin\FileController@create                    | web                                         |
|                               |           |                                                    |                               |                                                                     | App\Http\Middleware\Authenticate            |
| admin.jerssonarrivasplata.com | DELETE    | file/{file}                                        | file.destroy                  | App\Http\Controllers\Admin\FileController@destroy                   | web                                         |
|                               |           |                                                    |                               |                                                                     | App\Http\Middleware\Authenticate            |
| admin.jerssonarrivasplata.com | PUT|PATCH | file/{file}                                        | file.update                   | App\Http\Controllers\Admin\FileController@update                    | web                                         |
|                               |           |                                                    |                               |                                                                     | App\Http\Middleware\Authenticate            |
| admin.jerssonarrivasplata.com | GET|HEAD  | file/{file}                                        | file.show                     | App\Http\Controllers\Admin\FileController@show                      | web                                         |
|                               |           |                                                    |                               |                                                                     | App\Http\Middleware\Authenticate            |
| admin.jerssonarrivasplata.com | GET|HEAD  | file/{file}/edit                                   | file.edit                     | App\Http\Controllers\Admin\FileController@edit                      | web                                         |
|                               |           |                                                    |                               |                                                                     | App\Http\Middleware\Authenticate            |
| dev.jerssonarrivasplata.com   | GET|HEAD  | git                                                |                               | Closure                                                             | web                                         |
| dev.jerssonarrivasplata.com   | GET|HEAD  | html                                               |                               | Closure                                                             | web                                         |
| dev.jerssonarrivasplata.com   | GET|HEAD  | javascript                                         |                               | Closure                                                             | web                                         |
| admin.jerssonarrivasplata.com | GET|HEAD  | login                                              | login                         | App\Http\Controllers\Auth\LoginController@showLoginForm             | web                                         |
|                               |           |                                                    |                               |                                                                     | App\Http\Middleware\RedirectIfAuthenticated |
| admin.jerssonarrivasplata.com | POST      | login                                              |                               | App\Http\Controllers\Auth\LoginController@login                     | web                                         |
|                               |           |                                                    |                               |                                                                     | App\Http\Middleware\RedirectIfAuthenticated |
| admin.jerssonarrivasplata.com | POST      | logout                                             | logout                        | App\Http\Controllers\Auth\LoginController@logout                    | web                                         |
| admin.jerssonarrivasplata.com | GET|HEAD  | message                                            | message.index                 | App\Http\Controllers\Admin\MessageController@index                  | web                                         |
|                               |           |                                                    |                               |                                                                     | App\Http\Middleware\Authenticate            |
| admin.jerssonarrivasplata.com | POST      | message                                            | message.store                 | App\Http\Controllers\Admin\MessageController@store                  | web                                         |
|                               |           |                                                    |                               |                                                                     | App\Http\Middleware\Authenticate            |
| jerssonarrivasplata.com       | POST      | message                                            | contact.message               | App\Http\Controllers\Web\MessageController@store                    | web                                         |
| admin.jerssonarrivasplata.com | GET|HEAD  | message/create                                     | message.create                | App\Http\Controllers\Admin\MessageController@create                 | web                                         |
|                               |           |                                                    |                               |                                                                     | App\Http\Middleware\Authenticate            |
| admin.jerssonarrivasplata.com | DELETE    | message/{message}                                  | message.destroy               | App\Http\Controllers\Admin\MessageController@destroy                | web                                         |
|                               |           |                                                    |                               |                                                                     | App\Http\Middleware\Authenticate            |
| admin.jerssonarrivasplata.com | GET|HEAD  | message/{message}                                  | message.show                  | App\Http\Controllers\Admin\MessageController@show                   | web                                         |
|                               |           |                                                    |                               |                                                                     | App\Http\Middleware\Authenticate            |
| admin.jerssonarrivasplata.com | PUT|PATCH | message/{message}                                  | message.update                | App\Http\Controllers\Admin\MessageController@update                 | web                                         |
|                               |           |                                                    |                               |                                                                     | App\Http\Middleware\Authenticate            |
| admin.jerssonarrivasplata.com | GET|HEAD  | message/{message}/edit                             | message.edit                  | App\Http\Controllers\Admin\MessageController@edit                   | web                                         |
|                               |           |                                                    |                               |                                                                     | App\Http\Middleware\Authenticate            |
|                               | GET|HEAD  | sanctum/csrf-cookie                                |                               | Laravel\Sanctum\Http\Controllers\CsrfCookieController@show          | web                                         |
| dev.jerssonarrivasplata.com   | GET|HEAD  | scss                                               |                               | Closure                                                             | web                                         |
| dev.jerssonarrivasplata.com   | GET|HEAD  | seo                                                |                               | Closure                                                             | web                                         |
| dev.jerssonarrivasplata.com   | POST      | subscribe                                          | blog                          | App\Http\Controllers\Web\BlogController@subscribe                   | web                                         |
| dev.jerssonarrivasplata.com   | GET|HEAD  | typescript                                         |                               | Closure                                                             | web                                         |
| admin.jerssonarrivasplata.com | DELETE    | {}                                                 | destroy                       | App\Http\Controllers\Admin\HomeController@destroy                   | web                                         |
|                               |           |                                                    |                               |                                                                     | App\Http\Middleware\Authenticate            |
| admin.jerssonarrivasplata.com | GET|HEAD  | {}                                                 | show                          | App\Http\Controllers\Admin\HomeController@show                      | web                                         |
|                               |           |                                                    |                               |                                                                     | App\Http\Middleware\Authenticate            |
| admin.jerssonarrivasplata.com | PUT|PATCH | {}                                                 | update                        | App\Http\Controllers\Admin\HomeController@update                    | web                                         |
|                               |           |                                                    |                               |                                                                     | App\Http\Middleware\Authenticate            |
| admin.jerssonarrivasplata.com | GET|HEAD  | {}/edit                                            | edit                          | App\Http\Controllers\Admin\HomeController@edit                      | web                                         |
|                               |           |                                                    |                               |                                                                     | App\Http\Middleware\Authenticate            |
+-------------------------------+-----------+----------------------------------------------------+-------------------------------+---------------------------------------------------------------------+---------------------------------------------+
