{
    "/js/app.js": "/js/app.js",
    "/js/globals.js": "/js/globals.js",
    "/js/blog.js": "/js/blog.js",
    "/js/blog-content.js": "/js/blog-content.js",
    "/js/blog-content-index.js": "/js/blog-content-index.js",
    "/js/blog-content-type.js": "/js/blog-content-type.js",
    "/js/message.js": "/js/message.js",
    "/css/app.css": "/css/app.css",
    "/css/index.css": "/css/index.css",
    "/css/blog-content-type.css": "/css/blog-content-type.css",
    "/css/blog-content.css": "/css/blog-content.css",
    "/css/blog.css": "/css/blog.css",
    "/css/globals.css": "/css/globals.css",
    "/css/message.css": "/css/message.css",
    "/css/index-project.css": "/css/index-project.css",
    "/css/index-education.css": "/css/index-education.css",
    "/css/index-contact.css": "/css/index-contact.css"
}
